…
}

nsduh_import(nsduh_html,1,"marj")
```

    ## # A tibble: 510 × 5
    ##    State   age   year      percent outcome
    ##    <chr>   <chr> <chr>       <dbl> <chr>  
    ##  1 Alabama 12+   2013-2014    9.98 marj   
    ##  2 Alabama 12+   2014-2015    9.6  marj   
    ##  3 Alabama 12-17 2013-2014    9.9  marj   
    ##  4 Alabama 12-17 2014-2015    9.71 marj   
    ##  5 Alabama 18-25 2013-2014   27.0  marj   
    ##  6 Alabama 18-25 2014-2015   26.1  marj   
    ##  7 Alabama 26+   2013-2014    7.1  marj   
    ##  8 Alabama 26+   2014-2015    6.81 marj   
    ##  9 Alabama 18+   2013-2014    9.99 marj   
    ## 10 Alabama 18+   2014-2015    9.59 marj   
    ## # ℹ 500 more rows

``` r
nsduh_import(nsduh_html,4,"cocaine")
```

    ## # A tibble: 510 × 5
    ##    State   age   year      percent outcome
    ##    <chr>   <chr> <chr>       <dbl> <chr>  
    ##  1 Alabama 12+   2013-2014    1.23 cocaine
    ##  2 Alabama 12+   2014-2015    1.22 cocaine
    ##  3 Alabama 12-17 2013-2014    0.42 cocaine
    ##  4 Alabama 12-17 2014-2015    0.41 cocaine
    ##  5 Alabama 18-25 2013-2014    3.09 cocaine
    ##  6 Alabama 18-25 2014-2015    3.2  cocaine
    ##  7 Alabama 26+   2013-2014    1.01 cocaine
    ##  8 Alabama 26+   2014-2015    0.99 cocaine
    ##  9 Alabama 18+   2013-2014    1.31 cocaine
    ## 10 Alabama 18+   2014-2015    1.31 cocaine
    ## # ℹ 500 more rows

``` r
nsduh_import(nsduh_html,5,"heroine")
```

    ## # A tibble: 510 × 5
    ##    State   age   year      percent outcome
    ##    <chr>   <chr> <chr>       <dbl> <chr>  
    ##  1 Alabama 12+   2013-2014    0.22 heroine
    ##  2 Alabama 12+   2014-2015    0.27 heroine
    ##  3 Alabama 12-17 2013-2014    0.1  heroine
    ##  4 Alabama 12-17 2014-2015    0.08 heroine
    ##  5 Alabama 18-25 2013-2014    0.45 heroine
    ##  6 Alabama 18-25 2014-2015    0.64 heroine
    ##  7 Alabama 26+   2013-2014    0.19 heroine
    ##  8 Alabama 26+   2014-2015    0.23 heroine
    ##  9 Alabama 18+   2013-2014    0.23 heroine
    ## 10 Alabama 18+   2014-2015    0.29 heroine
    ## # ℹ 500 more rows
…
}


nsduh_df = 
  tibble(
    name = c("marj","cocaine","heroin"),
    number = c(1,4,5)
  ) 

map(nsduh_df$number,nsduh_import,html = nsduh_html)
```

    ## [[1]]
    ## # A tibble: 510 × 4
    ##    State   age   year      percent
    ##    <chr>   <chr> <chr>       <dbl>
    ##  1 Alabama 12+   2013-2014    9.98
    ##  2 Alabama 12+   2014-2015    9.6 
    ##  3 Alabama 12-17 2013-2014    9.9 
    ##  4 Alabama 12-17 2014-2015    9.71
    ##  5 Alabama 18-25 2013-2014   27.0 
    ##  6 Alabama 18-25 2014-2015   26.1 
    ##  7 Alabama 26+   2013-2014    7.1 
    ##  8 Alabama 26+   2014-2015    6.81
    ##  9 Alabama 18+   2013-2014    9.99
    ## 10 Alabama 18+   2014-2015    9.59
    ## # ℹ 500 more rows
    ## 
    ## [[2]]
    ## # A tibble: 510 × 4
    ##    State   age   year      percent
    ##    <chr>   <chr> <chr>       <dbl>
    ##  1 Alabama 12+   2013-2014    1.23
    ##  2 Alabama 12+   2014-2015    1.22
    ##  3 Alabama 12-17 2013-2014    0.42
    ##  4 Alabama 12-17 2014-2015    0.41
    ##  5 Alabama 18-25 2013-2014    3.09
    ##  6 Alabama 18-25 2014-2015    3.2 
    ##  7 Alabama 26+   2013-2014    1.01
    ##  8 Alabama 26+   2014-2015    0.99
    ##  9 Alabama 18+   2013-2014    1.31
    ## 10 Alabama 18+   2014-2015    1.31
    ## # ℹ 500 more rows
    ## 
    ## [[3]]
    ## # A tibble: 510 × 4
    ##    State   age   year      percent
    ##    <chr>   <chr> <chr>       <dbl>
    ##  1 Alabama 12+   2013-2014    0.22
    ##  2 Alabama 12+   2014-2015    0.27
    ##  3 Alabama 12-17 2013-2014    0.1 
    ##  4 Alabama 12-17 2014-2015    0.08
    ##  5 Alabama 18-25 2013-2014    0.45
    ##  6 Alabama 18-25 2014-2015    0.64
    ##  7 Alabama 26+   2013-2014    0.19
    ##  8 Alabama 26+   2014-2015    0.23
    ##  9 Alabama 18+   2013-2014    0.23
    ## 10 Alabama 18+   2014-2015    0.29
    ## # ℹ 500 more rows
